{
  "AppSyncApiName": "polling",
  "schemaGraphql": "s3://polling-20190203161358-deployment/amplify-appsync-files/schema.graphql.1549171918643",
  "ResolverBucket": "polling-20190203161358-deployment",
  "ResolverRootKey": "amplify-appsync-files",
  "DeploymentTimestamp": "1549171918643"
}
