{
  "identityPoolName": "cognitoa9cd48a7_identitypool_a9cd48a7",
  "allowUnauthenticatedIdentities": false,
  "thirdPartyAuth": false,
  "lambdaLogPolicy": "cognitoa9cd48a7_lambda_log_policy",
  "openIdLambdaRoleName": "cognitoa9cd48a7_openid_lambda_role",
  "openIdRolePolicy": "cognitoa9cd48a7_openid_pass_role_policy",
  "openIdLambdaIAMPolicy": "cognitoa9cd48a7_openid_lambda_iam_policy",
  "openIdLogPolicy": "cognitoa9cd48a7_openid_lambda_log_policy",
  "userPoolName": "cognitoa9cd48a7_userpool_a9cd48a7",
  "autoVerifiedAttributes": ["email"],
  "mfaConfiguration": "OFF",
  "mfaTypes": ["SMS Text Message"],
  "roleName": "cognitoa9cd48a7_sns-role",
  "roleExternalId": "cognitoa9cd48a7_role_external_id",
  "policyName": "cognitoa9cd48a7-sns-policy",
  "smsAuthenticationMessage": "Your authentication code is {####}",
  "smsVerificationMessage": "Your verification code is {####}",
  "emailVerificationSubject": "Your verification code",
  "emailVerificationMessage": "Your verification code is {####}",
  "defaultPasswordPolicy": false,
  "passwordPolicyMinLength": 8,
  "passwordPolicyCharacters": [
    "Requires Lowercase",
    "Requires Uppercase",
    "Requires Numbers",
    "Requires Symbols"
  ],
  "requiredAttributes": ["email"],
  "userpoolClientName": "cognitoa9cd48a7_app_client",
  "userpoolClientGenerateSecret": true,
  "userpoolClientRefreshTokenValidity": 30,
  "userpoolClientReadAttributes": ["email"],
  "mfaLambdaRole": "cognitoa9cd48a7_totp_lambda_role",
  "mfaLambdaLogPolicy": "cognitoa9cd48a7_totp_lambda_log_policy",
  "mfaPassRolePolicy": "cognitoa9cd48a7_totp_pass_role_policy",
  "mfaLambdaIAMPolicy": "cognitoa9cd48a7_totp_lambda_iam_policy",
  "userpoolClientLambdaRole": "cognitoa9cd48a7_userpoolclient_lambda_role",
  "userpoolClientLogPolicy": "cognitoa9cd48a7_userpoolclient_lambda_log_policy",
  "userpoolClientLambdaPolicy": "cognitoa9cd48a7_userpoolclient_lambda_iam_policy",
  "userpoolClientSetAttributes": false,
  "useDefault": "default",
  "unAuthRoleName": "polling-20190120190420-unauthRole",
  "authRoleName": "polling-20190120190420-authRole",
  "unAuthRoleArn": "arn:aws:iam::659023026482:role/polling-20190120190420-unauthRole",
  "authRoleArn": "arn:aws:iam::659023026482:role/polling-20190120190420-authRole",
  "resourceName": "cognitoa9cd48a7",
  "authSelections": "identityPoolAndUserPool"
}
