{
  "resourceName": "cognito14b1819d",
  "authSelections": "identityPoolAndUserPool",
  "userPoolName": "cognito14b1819d_userpool_14b1819d",
  "autoVerifiedAttributes": ["email"],
  "mfaConfiguration": "OFF",
  "mfaTypes": ["SMS Text Message"],
  "roleName": "cognito14b1819d_sns-role",
  "roleExternalId": "cognito14b1819d_role_external_id",
  "policyName": "cognito14b1819d-sns-policy",
  "smsAuthenticationMessage": "Your authentication code is {####}",
  "smsVerificationMessage": "Your verification code is {####}",
  "emailVerificationSubject": "Your verification code",
  "emailVerificationMessage": "Your verification code is {####}",
  "defaultPasswordPolicy": false,
  "passwordPolicyMinLength": 8,
  "passwordPolicyCharacters": [
    "Requires Lowercase",
    "Requires Uppercase",
    "Requires Numbers",
    "Requires Symbols"
  ],
  "requiredAttributes": ["email"],
  "userpoolClientName": "cognito14b1819d_app_client",
  "userpoolClientGenerateSecret": true,
  "userpoolClientRefreshTokenValidity": 30,
  "userpoolClientReadAttributes": ["email"],
  "mfaLambdaRole": "cognito14b1819d_totp_lambda_role",
  "mfaLambdaLogPolicy": "cognito14b1819d_totp_lambda_log_policy",
  "mfaPassRolePolicy": "cognito14b1819d_totp_pass_role_policy",
  "mfaLambdaIAMPolicy": "cognito14b1819d_totp_lambda_iam_policy",
  "userpoolClientLambdaRole": "cognito14b1819d_userpoolclient_lambda_role",
  "userpoolClientLogPolicy": "cognito14b1819d_userpoolclient_lambda_log_policy",
  "userpoolClientLambdaPolicy": "cognito14b1819d_userpoolclient_lambda_iam_policy",
  "userpoolClientSetAttributes": false,
  "identityPoolName": "cognito14b1819d_identitypool_14b1819d",
  "allowUnauthenticatedIdentities": false,
  "thirdPartyAuth": false,
  "lambdaLogPolicy": "cognito14b1819d_lambda_log_policy",
  "openIdLambdaRoleName": "cognito14b1819d_openid_lambda_role",
  "openIdRolePolicy": "cognito14b1819d_openid_pass_role_policy",
  "openIdLambdaIAMPolicy": "cognito14b1819d_openid_lambda_iam_policy",
  "openIdLogPolicy": "cognito14b1819d_openid_lambda_log_policy",
  "useDefault": "default",
  "unAuthRoleName": "polling-20190203161358-unauthRole",
  "authRoleName": "polling-20190203161358-authRole",
  "unAuthRoleArn": "arn:aws:iam::659023026482:role/polling-20190203161358-unauthRole",
  "authRoleArn": "arn:aws:iam::659023026482:role/polling-20190203161358-authRole"
}
